<svg width="13" height="13" viewBox="0 0 13 13" fill="none" xmlns="http://www.w3.org/2000/svg">
<g id="carbon:play-outline" clip-path="url(#clip0_0_466)">
<path id="Vector" d="M4.23496 8.81695C4.13618 8.81695 4.04144 8.7777 3.97158 8.70785C3.90173 8.638 3.86249 8.54326 3.86249 8.44447V3.97478C3.86252 3.91132 3.87877 3.84891 3.9097 3.79349C3.94062 3.73807 3.98519 3.69147 4.03919 3.65811C4.09318 3.62475 4.1548 3.60574 4.2182 3.60289C4.2816 3.60003 4.34468 3.61342 4.40146 3.64179L8.87115 5.87664C8.93293 5.9076 8.98488 5.95515 9.02119 6.01396C9.0575 6.07277 9.07673 6.14052 9.07673 6.20963C9.07673 6.27874 9.0575 6.34649 9.02119 6.4053C8.98488 6.46411 8.93293 6.51165 8.87115 6.54262L4.40146 8.77746C4.34977 8.80335 4.29277 8.81687 4.23496 8.81695ZM4.60744 4.57745V7.84181L7.8718 6.20963L4.60744 4.57745Z" fill="white"/>
<path id="Vector_2" d="M6.09745 1.73994C6.98147 1.73994 7.84564 2.00209 8.58068 2.49322C9.31571 2.98436 9.8886 3.68243 10.2269 4.49916C10.5652 5.31588 10.6537 6.21459 10.4813 7.08162C10.3088 7.94866 9.88309 8.74508 9.258 9.37018C8.6329 9.99527 7.83648 10.421 6.96944 10.5934C6.10241 10.7659 5.2037 10.6774 4.38698 10.3391C3.57025 10.0008 2.87218 9.42789 2.38104 8.69286C1.88991 7.95782 1.62776 7.09365 1.62776 6.20963C1.62776 5.0242 2.09867 3.88731 2.9369 3.04908C3.77513 2.21086 4.91202 1.73994 6.09745 1.73994ZM6.09745 0.994995C5.06609 0.994995 4.0579 1.30083 3.20035 1.87382C2.34281 2.44681 1.67444 3.26123 1.27976 4.21408C0.885072 5.16693 0.781805 6.21542 0.983013 7.22696C1.18422 8.2385 1.68087 9.16765 2.41015 9.89693C3.13943 10.6262 4.06859 11.1229 5.08013 11.3241C6.09167 11.5253 7.14016 11.422 8.09301 11.0273C9.04586 10.6326 9.86027 9.96427 10.4333 9.10673C11.0063 8.24918 11.3121 7.24099 11.3121 6.20963C11.3121 4.82662 10.7627 3.50026 9.78475 2.52233C8.80682 1.54439 7.48046 0.994995 6.09745 0.994995Z" fill="white"/>
</g>
<defs>
<clipPath id="clip0_0_466">
<rect width="11.9192" height="11.9192" fill="white" transform="translate(0.137817 0.249908)"/>
</clipPath>
</defs>
</svg>
