<svg width="97" height="97" viewBox="0 0 97 97" fill="none" xmlns="http://www.w3.org/2000/svg">
<g id="Group 7395">
<g id="Ellipse 9641" filter="url(#filter0_b_0_507)">
<circle cx="48.5" cy="48.5" r="48.5" fill="white" fill-opacity="0.6"/>
</g>
<path id="Polygon 101" d="M69.1379 45.1669C71.7037 46.6483 71.7037 50.3517 69.1379 51.8331L41.0676 68.0395C38.5018 69.5208 35.2946 67.6691 35.2946 64.7064L35.2946 32.2936C35.2946 29.3309 38.5018 27.4792 41.0676 28.9606L69.1379 45.1669Z" fill="black"/>
</g>
<defs>
<filter id="filter0_b_0_507" x="-6.9505" y="-6.9505" width="110.901" height="110.901" filterUnits="userSpaceOnUse" color-interpolation-filters="sRGB">
<feFlood flood-opacity="0" result="BackgroundImageFix"/>
<feGaussianBlur in="BackgroundImageFix" stdDeviation="3.47525"/>
<feComposite in2="SourceAlpha" operator="in" result="effect1_backgroundBlur_0_507"/>
<feBlend mode="normal" in="SourceGraphic" in2="effect1_backgroundBlur_0_507" result="shape"/>
</filter>
</defs>
</svg>
