<svg width="275" height="227" viewBox="0 0 275 227" fill="none" xmlns="http://www.w3.org/2000/svg">
<circle cx="55.1422" cy="53.2415" r="18.1128" stroke="white" stroke-opacity="0.06" stroke-width="0.42011"/>
<circle cx="72.8928" cy="71.3543" r="18.1128" stroke="white" stroke-opacity="0.06" stroke-width="0.42011"/>
<circle cx="55.1422" cy="126.576" r="18.1128" stroke="white" stroke-opacity="0.06" stroke-width="0.42011"/>
<circle cx="72.8928" cy="144.689" r="18.1128" stroke="white" stroke-opacity="0.06" stroke-width="0.42011"/>
<circle cx="91.5889" cy="53.2415" r="18.1128" stroke="white" stroke-opacity="0.06" stroke-width="0.42011"/>
<circle cx="109.339" cy="71.3543" r="18.1128" stroke="white" stroke-opacity="0.06" stroke-width="0.42011"/>
<circle cx="91.5889" cy="126.576" r="18.1128" stroke="white" stroke-opacity="0.06" stroke-width="0.42011"/>
<circle cx="109.339" cy="144.689" r="18.1128" stroke="white" stroke-opacity="0.06" stroke-width="0.42011"/>
<ellipse cx="128.402" cy="53.2415" rx="18.0392" ry="18.1128" stroke="white" stroke-opacity="0.06" stroke-width="0.42011"/>
<ellipse cx="146.08" cy="71.3543" rx="18.0392" ry="18.1128" stroke="white" stroke-opacity="0.06" stroke-width="0.42011"/>
<ellipse cx="128.402" cy="126.576" rx="18.0392" ry="18.1128" stroke="white" stroke-opacity="0.06" stroke-width="0.42011"/>
<ellipse cx="146.08" cy="144.689" rx="18.0392" ry="18.1128" stroke="white" stroke-opacity="0.06" stroke-width="0.42011"/>
<circle cx="164.924" cy="53.2415" r="18.1128" stroke="white" stroke-opacity="0.06" stroke-width="0.42011"/>
<circle cx="182.674" cy="71.3543" r="18.1128" stroke="white" stroke-opacity="0.06" stroke-width="0.42011"/>
<circle cx="164.924" cy="126.576" r="18.1128" stroke="white" stroke-opacity="0.06" stroke-width="0.42011"/>
<circle cx="182.674" cy="144.689" r="18.1128" stroke="white" stroke-opacity="0.06" stroke-width="0.42011"/>
<ellipse cx="201.516" cy="53.2415" rx="18.0392" ry="18.1128" stroke="white" stroke-opacity="0.06" stroke-width="0.42011"/>
<ellipse cx="219.194" cy="71.3543" rx="18.0392" ry="18.1128" stroke="white" stroke-opacity="0.06" stroke-width="0.42011"/>
<ellipse cx="201.516" cy="126.576" rx="18.0392" ry="18.1128" stroke="white" stroke-opacity="0.06" stroke-width="0.42011"/>
<ellipse cx="219.194" cy="144.689" rx="18.0392" ry="18.1128" stroke="white" stroke-opacity="0.06" stroke-width="0.42011"/>
<ellipse cx="238.113" cy="53.2415" rx="18.1864" ry="18.1128" stroke="white" stroke-opacity="0.06" stroke-width="0.42011"/>
<ellipse cx="255.935" cy="71.3543" rx="18.1864" ry="18.1128" stroke="white" stroke-opacity="0.06" stroke-width="0.42011"/>
<ellipse cx="238.113" cy="126.576" rx="18.1864" ry="18.1128" stroke="white" stroke-opacity="0.06" stroke-width="0.42011"/>
<ellipse cx="255.935" cy="144.689" rx="18.1864" ry="18.1128" stroke="white" stroke-opacity="0.06" stroke-width="0.42011"/>
<ellipse cx="18.4" cy="53.2415" rx="18.0392" ry="18.1128" stroke="white" stroke-opacity="0.06" stroke-width="0.42011"/>
<ellipse cx="36.0783" cy="71.3543" rx="18.0392" ry="18.1128" stroke="white" stroke-opacity="0.06" stroke-width="0.42011"/>
<ellipse cx="18.4" cy="126.576" rx="18.0392" ry="18.1128" stroke="white" stroke-opacity="0.06" stroke-width="0.42011"/>
<ellipse cx="36.0783" cy="144.689" rx="18.0392" ry="18.1128" stroke="white" stroke-opacity="0.06" stroke-width="0.42011"/>
<ellipse cx="55.1422" cy="16.4638" rx="18.1128" ry="18.0392" stroke="white" stroke-opacity="0.06" stroke-width="0.42011"/>
<ellipse cx="72.8928" cy="34.503" rx="18.1128" ry="18.0392" stroke="white" stroke-opacity="0.06" stroke-width="0.42011"/>
<ellipse cx="55.1422" cy="89.7985" rx="18.1128" ry="18.0392" stroke="white" stroke-opacity="0.06" stroke-width="0.42011"/>
<ellipse cx="72.8928" cy="107.838" rx="18.1128" ry="18.0392" stroke="white" stroke-opacity="0.06" stroke-width="0.42011"/>
<ellipse cx="91.5889" cy="16.4638" rx="18.1128" ry="18.0392" stroke="white" stroke-opacity="0.06" stroke-width="0.42011"/>
<ellipse cx="109.339" cy="34.503" rx="18.1128" ry="18.0392" stroke="white" stroke-opacity="0.06" stroke-width="0.42011"/>
<ellipse cx="91.5889" cy="89.7985" rx="18.1128" ry="18.0392" stroke="white" stroke-opacity="0.06" stroke-width="0.42011"/>
<ellipse cx="109.339" cy="107.838" rx="18.1128" ry="18.0392" stroke="white" stroke-opacity="0.06" stroke-width="0.42011"/>
<ellipse cx="128.402" cy="16.4638" rx="18.0392" ry="18.0392" stroke="white" stroke-opacity="0.06" stroke-width="0.42011"/>
<circle cx="146.08" cy="34.503" r="18.0392" stroke="white" stroke-opacity="0.06" stroke-width="0.42011"/>
<ellipse cx="128.402" cy="89.7985" rx="18.0392" ry="18.0392" stroke="white" stroke-opacity="0.06" stroke-width="0.42011"/>
<circle cx="146.08" cy="107.838" r="18.0392" stroke="white" stroke-opacity="0.06" stroke-width="0.42011"/>
<ellipse cx="164.924" cy="16.4638" rx="18.1128" ry="18.0392" stroke="white" stroke-opacity="0.06" stroke-width="0.42011"/>
<ellipse cx="182.674" cy="34.503" rx="18.1128" ry="18.0392" stroke="white" stroke-opacity="0.06" stroke-width="0.42011"/>
<ellipse cx="164.924" cy="89.7985" rx="18.1128" ry="18.0392" stroke="white" stroke-opacity="0.06" stroke-width="0.42011"/>
<ellipse cx="182.674" cy="107.838" rx="18.1128" ry="18.0392" stroke="white" stroke-opacity="0.06" stroke-width="0.42011"/>
<ellipse cx="201.516" cy="16.4638" rx="18.0392" ry="18.0392" stroke="white" stroke-opacity="0.06" stroke-width="0.42011"/>
<circle cx="219.194" cy="34.503" r="18.0392" stroke="white" stroke-opacity="0.06" stroke-width="0.42011"/>
<ellipse cx="201.516" cy="89.7985" rx="18.0392" ry="18.0392" stroke="white" stroke-opacity="0.06" stroke-width="0.42011"/>
<circle cx="219.194" cy="107.838" r="18.0392" stroke="white" stroke-opacity="0.06" stroke-width="0.42011"/>
<ellipse cx="238.113" cy="16.4638" rx="18.1864" ry="18.0392" stroke="white" stroke-opacity="0.06" stroke-width="0.42011"/>
<ellipse cx="255.935" cy="34.503" rx="18.1864" ry="18.0392" stroke="white" stroke-opacity="0.06" stroke-width="0.42011"/>
<ellipse cx="238.113" cy="89.7985" rx="18.1864" ry="18.0392" stroke="white" stroke-opacity="0.06" stroke-width="0.42011"/>
<ellipse cx="255.935" cy="107.838" rx="18.1864" ry="18.0392" stroke="white" stroke-opacity="0.06" stroke-width="0.42011"/>
<ellipse cx="18.4" cy="16.4638" rx="18.0392" ry="18.0392" stroke="white" stroke-opacity="0.06" stroke-width="0.42011"/>
<circle cx="36.0783" cy="34.503" r="18.0392" stroke="white" stroke-opacity="0.06" stroke-width="0.42011"/>
<ellipse cx="18.4" cy="89.7985" rx="18.0392" ry="18.0392" stroke="white" stroke-opacity="0.06" stroke-width="0.42011"/>
<circle cx="36.0783" cy="107.838" r="18.0392" stroke="white" stroke-opacity="0.06" stroke-width="0.42011"/>
<ellipse cx="55.1422" cy="199.801" rx="18.1128" ry="18.0392" stroke="white" stroke-opacity="0.06" stroke-width="0.42011"/>
<ellipse cx="72.8928" cy="217.84" rx="18.1128" ry="18.0392" stroke="white" stroke-opacity="0.06" stroke-width="0.42011"/>
<ellipse cx="91.5889" cy="199.801" rx="18.1128" ry="18.0392" stroke="white" stroke-opacity="0.06" stroke-width="0.42011"/>
<ellipse cx="109.339" cy="217.84" rx="18.1128" ry="18.0392" stroke="white" stroke-opacity="0.06" stroke-width="0.42011"/>
<ellipse cx="128.402" cy="199.801" rx="18.0392" ry="18.0392" stroke="white" stroke-opacity="0.06" stroke-width="0.42011"/>
<circle cx="146.08" cy="217.84" r="18.0392" stroke="white" stroke-opacity="0.06" stroke-width="0.42011"/>
<ellipse cx="164.924" cy="199.801" rx="18.1128" ry="18.0392" stroke="white" stroke-opacity="0.06" stroke-width="0.42011"/>
<ellipse cx="182.674" cy="217.84" rx="18.1128" ry="18.0392" stroke="white" stroke-opacity="0.06" stroke-width="0.42011"/>
<ellipse cx="201.516" cy="199.801" rx="18.0392" ry="18.0392" stroke="white" stroke-opacity="0.06" stroke-width="0.42011"/>
<circle cx="219.194" cy="217.84" r="18.0392" stroke="white" stroke-opacity="0.06" stroke-width="0.42011"/>
<ellipse cx="238.113" cy="199.801" rx="18.1864" ry="18.0392" stroke="white" stroke-opacity="0.06" stroke-width="0.42011"/>
<ellipse cx="255.935" cy="217.84" rx="18.1864" ry="18.0392" stroke="white" stroke-opacity="0.06" stroke-width="0.42011"/>
<ellipse cx="18.4" cy="199.801" rx="18.0392" ry="18.0392" stroke="white" stroke-opacity="0.06" stroke-width="0.42011"/>
<circle cx="36.0783" cy="217.84" r="18.0392" stroke="white" stroke-opacity="0.06" stroke-width="0.42011"/>
<circle cx="55.1422" cy="163.023" r="18.1128" stroke="white" stroke-opacity="0.06" stroke-width="0.42011"/>
<circle cx="72.8928" cy="181.136" r="18.1128" stroke="white" stroke-opacity="0.06" stroke-width="0.42011"/>
<circle cx="91.5889" cy="163.023" r="18.1128" stroke="white" stroke-opacity="0.06" stroke-width="0.42011"/>
<circle cx="109.339" cy="181.136" r="18.1128" stroke="white" stroke-opacity="0.06" stroke-width="0.42011"/>
<ellipse cx="128.402" cy="163.023" rx="18.0392" ry="18.1128" stroke="white" stroke-opacity="0.06" stroke-width="0.42011"/>
<ellipse cx="146.08" cy="181.136" rx="18.0392" ry="18.1128" stroke="white" stroke-opacity="0.06" stroke-width="0.42011"/>
<circle cx="164.924" cy="163.023" r="18.1128" stroke="white" stroke-opacity="0.06" stroke-width="0.42011"/>
<circle cx="182.674" cy="181.136" r="18.1128" stroke="white" stroke-opacity="0.06" stroke-width="0.42011"/>
<ellipse cx="201.516" cy="163.023" rx="18.0392" ry="18.1128" stroke="white" stroke-opacity="0.06" stroke-width="0.42011"/>
<ellipse cx="219.194" cy="181.136" rx="18.0392" ry="18.1128" stroke="white" stroke-opacity="0.06" stroke-width="0.42011"/>
<ellipse cx="238.113" cy="163.023" rx="18.1864" ry="18.1128" stroke="white" stroke-opacity="0.06" stroke-width="0.42011"/>
<ellipse cx="255.935" cy="181.136" rx="18.1864" ry="18.1128" stroke="white" stroke-opacity="0.06" stroke-width="0.42011"/>
<ellipse cx="18.4" cy="163.023" rx="18.0392" ry="18.1128" stroke="white" stroke-opacity="0.06" stroke-width="0.42011"/>
<ellipse cx="36.0783" cy="181.136" rx="18.0392" ry="18.1128" stroke="white" stroke-opacity="0.06" stroke-width="0.42011"/>
</svg>
