<svg width="166" height="165" viewBox="0 0 166 165" fill="none" xmlns="http://www.w3.org/2000/svg">
<path id="Vector" d="M82.9785 164.328C128.304 164.328 165.048 127.584 165.048 82.2583C165.048 36.9327 128.304 0.189026 82.9785 0.189026C37.6529 0.189026 0.909302 36.9327 0.909302 82.2583C0.909302 127.584 37.6529 164.328 82.9785 164.328Z" fill="url(#paint0_linear_0_313)"/>
<defs>
<linearGradient id="paint0_linear_0_313" x1="149.411" y1="97.7906" x2="0.909299" y2="-31.5052" gradientUnits="userSpaceOnUse">
<stop stop-color="white" stop-opacity="0"/>
<stop offset="1" stop-color="#BC8600"/>
</linearGradient>
</defs>
</svg>
